{
    "0": {
        "coords": [
            0,
            0,
            0
        ],
        "deuter": 2.0,
        "connections": [
            1,
            2,
            3,
            4,
            5,
            6,
            7,
            8
        ]
    },
    "1": {
        "coords": [
            0.015625824686528112,
            1.0685816499052692,
            -0.6333923709038816
        ],
        "deuter": 0.4276644611673796,
        "connections": [
            4,
            6,
            8,
            0
        ]
    },
    "2": {
        "coords": [
            -1.575556012048715,
            -0.7271057870709895,
            0.043372749691417745
        ],
        "deuter": 1.715167999393791,
        "connections": [
            3,
            4,
            6,
            8,
            0
        ]
    },
    "3": {
        "coords": [
            0.039239602007617135,
            -0.5692123129806097,
            -1.5368099679295415
        ],
        "deuter": 0.17913641484810192,
        "connections": [
            2,
            4,
            8,
            0
        ]
    },
    "4": {
        "coords": [
            -0.49828910021143863,
            -1.4885069263028994,
            -0.2562456888123213
        ],
        "deuter": 0.7772882459148335,
        "connections": [
            1,
            2,
            3,
            6,
            0
        ]
    },
    "5": {
        "coords": [
            0.5030191836401062,
            0.22510867673875087,
            -0.2892203381851254
        ],
        "deuter": 0.8826963711180423,
        "connections": [
            6,
            7,
            0
        ]
    },
    "6": {
        "coords": [
            0.4579438842340137,
            0.8960336057693111,
            -0.1656676000504214
        ],
        "deuter": 2.6880716405831624,
        "connections": [
            1,
            2,
            4,
            5,
            7,
            8,
            0
        ]
    },
    "7": {
        "coords": [
            0.5804302764976512,
            0.6569704312151879,
            0.08621886037800877
        ],
        "deuter": 0.9658467267155753,
        "connections": [
            5,
            6,
            8,
            0
        ]
    },
    "8": {
        "coords": [
            -0.680953587082697,
            -0.8508695071134387,
            0.5516067731163171
        ],
        "deuter": 0.4947523425092617,
        "connections": [
            1,
            2,
            3,
            6,
            7,
            0
        ]
    }
}